[
  {
    "id": "A-001-004-001",
    "language": "en",
    "question": "What is the resonant frequency of a parallel RLC circuit if R is 4.7 kilohms, L is 1 microhenry and C is 10 picofarads?",
    "options": {
      "A": "15.9 kHz",
      "B": "50.3 kHz",
      "C": "15.9 MHz",
      "D": "50.3 MHz"
    },
    "answer": {
      "D": "50.3 MHz"
    }
  },
  {
    "id": "A-001-004-002",
    "language": "en",
    "question": "What is the resonant frequency of a parallel RLC circuit if R is 4.7 kilohms, L is 2 microhenrys and C is 15 picofarads?",
    "options": {
      "A": "5.31 kHz",
      "B": "29.1 MHz",
      "C": "5.31 MHz",
      "D": "29.1 kHz"
    },
    "answer": {
      "B": "29.1 MHz"
    }
  },
  {
    "id": "A-001-004-003",
    "language": "en",
    "question": "What is the resonant frequency of a parallel RLC circuit if R is 4.7 kilohms, L is 5 microhenrys and C is 9 picofarads?",
    "options": {
      "A": "23.7 MHz",
      "B": "3.54 kHz",
      "C": "23.7 kHz",
      "D": "3.54 MHz"
    },
    "answer": {
      "A": "23.7 MHz"
    }
  },
  {
    "id": "A-001-004-004",
    "language": "en",
    "question": "What is the resonant frequency of a parallel RLC circuit if R is 4.7 kilohms, L is 2 microhenrys and C is 30 picofarads?",
    "options": {
      "A": "20.5 kHz",
      "B": "2.65 MHz",
      "C": "2.65 kHz",
      "D": "20.5 MHz"
    },
    "answer": {
      "D": "20.5 MHz"
    }
  },
  {
    "id": "A-001-004-005",
    "language": "en",
    "question": "What is the resonant frequency of a parallel RLC circuit if R is 4.7 kilohms, L is 15 microhenrys and C is 5 picofarads?",
    "options": {
      "A": "2.12 MHz",
      "B": "18.4 MHz",
      "C": "18.4 kHz",
      "D": "2.12 kHz"
    },
    "answer": {
      "B": "18.4 MHz"
    }
  },
  {
    "id": "A-001-004-006",
    "language": "en",
    "question": "What is the resonant frequency of a parallel RLC circuit if R is 4.7 kilohms, L is 3 microhenrys and C is 40 picofarads?",
    "options": {
      "A": "14.5 kHz",
      "B": "1.33 MHz",
      "C": "14.5 MHz",
      "D": "1.33 kHz"
    },
    "answer": {
      "C": "14.5 MHz"
    }
  },
  {
    "id": "A-001-004-007",
    "language": "en",
    "question": "What is the resonant frequency of a parallel RLC circuit if R is 4.7 kilohms, L is 40 microhenrys and C is 6 picofarads?",
    "options": {
      "A": "10.3 kHz",
      "B": "6.63 kHz",
      "C": "10.3 MHz",
      "D": "6.63 MHz"
    },
    "answer": {
      "C": "10.3 MHz"
    }
  },
  {
    "id": "A-001-004-008",
    "language": "en",
    "question": "What is the resonant frequency of a parallel RLC circuit if R is 4.7 kilohms, L is 10 microhenrys and C is 50 picofarads?",
    "options": {
      "A": "3.18 MHz",
      "B": "3.18 kHz",
      "C": "7.12 MHz",
      "D": "7.12 kHz"
    },
    "answer": {
      "C": "7.12 MHz"
    }
  },
  {
    "id": "A-001-004-009",
    "language": "en",
    "question": "What is the resonant frequency of a parallel RLC circuit if R is 4.7 kilohms, L is 200 microhenrys and C is 10 picofarads?",
    "options": {
      "A": "7.96 MHz",
      "B": "3.56 kHz",
      "C": "3.56 MHz",
      "D": "7.96 kHz"
    },
    "answer": {
      "C": "3.56 MHz"
    }
  },
  {
    "id": "A-001-004-010",
    "language": "en",
    "question": "What is the resonant frequency of a parallel RLC circuit if R is 4.7 kilohms, L is 90 microhenrys and C is 100 picofarads?",
    "options": {
      "A": "1.68 MHz",
      "B": "1.68 kHz",
      "C": "1.77 MHz",
      "D": "1.77 kHz"
    },
    "answer": {
      "A": "1.68 MHz"
    }
  },
  {
    "id": "A-001-004-011",
    "language": "en",
    "question": "What is the value of inductance (L) in a parallel RLC circuit, if the resonant frequency is 14.25 MHz and C is 44 picofarads?",
    "options": {
      "A": "3.9 millihenrys",
      "B": "253.8 millihenrys",
      "C": "0.353 microhenry",
      "D": "2.8 microhenrys"
    },
    "answer": {
      "D": "2.8 microhenrys"
    }
  }
]