[
  {
    "id": "A-006-004-001",
    "language": "en",
    "question": "What audio shaping network is added at an FM receiver to restore proportionally attenuated lower audio frequencies?",
    "options": {
      "A": "A pre-emphasis network",
      "B": "An audio prescaler",
      "C": "A heterodyne suppressor",
      "D": "A de-emphasis network"
    },
    "answer": {
      "D": "A de-emphasis network"
    }
  },
  {
    "id": "A-006-004-002",
    "language": "en",
    "question": "What does a product detector do?",
    "options": {
      "A": "It provides local oscillations for input to a mixer",
      "B": "It detects cross-modulation products",
      "C": "It mixes an incoming signal with a locally generated carrier",
      "D": "It amplifies and narrows band-pass frequencies"
    },
    "answer": {
      "C": "It mixes an incoming signal with a locally generated carrier"
    }
  },
  {
    "id": "A-006-004-003",
    "language": "en",
    "question": "Distortion in a receiver that only affects strong signals usually indicates a defect in or mis-adjustment of the:",
    "options": {
      "A": "IF amplifier",
      "B": "AF amplifier",
      "C": "automatic gain control (AGC)",
      "D": "RF amplifier"
    },
    "answer": {
      "C": "automatic gain control (AGC)"
    }
  },
  {
    "id": "A-006-004-004",
    "language": "en",
    "question": "In a superheterodyne receiver with automatic gain control (AGC), as the strength of the signal increases, the AGC:",
    "options": {
      "A": "distorts the signal",
      "B": "reduces the receiver gain",
      "C": "introduces limiting",
      "D": "increases the receiver gain"
    },
    "answer": {
      "B": "reduces the receiver gain"
    }
  },
  {
    "id": "A-006-004-005",
    "language": "en",
    "question": "The amplified IF signal is applied to the ____________ stage in a superheterodyne receiver:",
    "options": {
      "A": "LO",
      "B": "audio output",
      "C": "detector",
      "D": "RF amplifier"
    },
    "answer": {
      "C": "detector"
    }
  },
  {
    "id": "A-006-004-006",
    "language": "en",
    "question": "The low-level output of a detector is:",
    "options": {
      "A": "applied to the RF amplifier",
      "B": "fed directly to the speaker",
      "C": "grounded via the chassis",
      "D": "applied to the AF amplifier"
    },
    "answer": {
      "D": "applied to the AF amplifier"
    }
  },
  {
    "id": "A-006-004-007",
    "language": "en",
    "question": "The overall output of an AM/CW/SSB receiver can be adjusted by means of manual controls on the receiver or by use of a circuit known as:",
    "options": {
      "A": "inverse gain control",
      "B": "automatic load control",
      "C": "automatic frequency control",
      "D": "automatic gain control"
    },
    "answer": {
      "D": "automatic gain control"
    }
  },
  {
    "id": "A-006-004-008",
    "language": "en",
    "question": "AGC voltage is applied to the:",
    "options": {
      "A": "RF and AF amplifiers",
      "B": "detector and AF amplifiers",
      "C": "AF and IF amplifiers",
      "D": "RF and IF amplifiers"
    },
    "answer": {
      "D": "RF and IF amplifiers"
    }
  },
  {
    "id": "A-006-004-009",
    "language": "en",
    "question": "AGC is derived in a receiver from one of two circuits. Depending on the method used, it is called:",
    "options": {
      "A": "RF derived or audio derived",
      "B": "detector derived or audio derived",
      "C": "IF derived or audio derived",
      "D": "IF derived or RF derived"
    },
    "answer": {
      "C": "IF derived or audio derived"
    }
  },
  {
    "id": "A-006-004-010",
    "language": "en",
    "question": "Which two variables primarily determine the behaviour of an automatic gain control (AGC) loop?",
    "options": {
      "A": "Clipping level and hang time",
      "B": "Blanking level and slope",
      "C": "Threshold and decay time",
      "D": "Slope and bandwidth"
    },
    "answer": {
      "C": "Threshold and decay time"
    }
  },
  {
    "id": "A-006-004-011",
    "language": "en",
    "question": "What circuit combines signals from an IF amplifier stage and a beat-frequency oscillator (BFO), to produce an audio signal?",
    "options": {
      "A": "A power supply circuit",
      "B": "A VFO circuit",
      "C": "A product detector circuit",
      "D": "An AGC circuit"
    },
    "answer": {
      "C": "A product detector circuit"
    }
  }
]