[
  {
    "id": "A-007-004-001",
    "language": "en",
    "question": "In a half-wave dipole, the distribution of _______ is highest at each end.",
    "options": {
      "A": "voltage",
      "B": "inductance",
      "C": "current",
      "D": "capacitance"
    },
    "answer": {
      "A": "voltage"
    }
  },
  {
    "id": "A-007-004-002",
    "language": "en",
    "question": "In a half-wave dipole, the distribution of _______ is lowest at each end.",
    "options": {
      "A": "voltage",
      "B": "capacitance",
      "C": "current",
      "D": "inductance"
    },
    "answer": {
      "C": "current"
    }
  },
  {
    "id": "A-007-004-003",
    "language": "en",
    "question": "The feed point in a centre-fed half-wave antenna is at the point of:",
    "options": {
      "A": "maximum current",
      "B": "minimum voltage and current",
      "C": "maximum voltage",
      "D": "minimum current"
    },
    "answer": {
      "A": "maximum current"
    }
  },
  {
    "id": "A-007-004-004",
    "language": "en",
    "question": "In a half-wave dipole, the lowest distribution of _________ occurs at the middle.",
    "options": {
      "A": "capacity",
      "B": "current",
      "C": "inductance",
      "D": "voltage"
    },
    "answer": {
      "D": "voltage"
    }
  },
  {
    "id": "A-007-004-005",
    "language": "en",
    "question": "In a half-wave dipole, the highest distribution of ________ occurs at the middle.",
    "options": {
      "A": "capacity",
      "B": "inductance",
      "C": "current",
      "D": "voltage"
    },
    "answer": {
      "C": "current"
    }
  },
  {
    "id": "A-007-004-006",
    "language": "en",
    "question": "A half-wave dipole antenna is normally fed at the point where:",
    "options": {
      "A": "the antenna is resonant",
      "B": "the resistance is maximum",
      "C": "the current is maximum",
      "D": "the voltage is maximum"
    },
    "answer": {
      "C": "the current is maximum"
    }
  },
  {
    "id": "A-007-004-007",
    "language": "en",
    "question": "At the ends of a half-wave dipole:",
    "options": {
      "A": "voltage is high and current is low",
      "B": "voltage and current are both low",
      "C": "voltage is low and current is high",
      "D": "voltage and current are both high"
    },
    "answer": {
      "A": "voltage is high and current is low"
    }
  },
  {
    "id": "A-007-004-008",
    "language": "en",
    "question": "The impedance of a half-wave antenna at its centre is low, because at this point:",
    "options": {
      "A": "voltage and current are both low",
      "B": "voltage is low and current is high",
      "C": "voltage is high and current is low",
      "D": "voltage and current are both high"
    },
    "answer": {
      "B": "voltage is low and current is high"
    }
  },
  {
    "id": "A-007-004-009",
    "language": "en",
    "question": "In a half-wave dipole, where does minimum voltage occur?",
    "options": {
      "A": "Both ends",
      "B": "The centre",
      "C": "At the right end",
      "D": "It is equal at all points"
    },
    "answer": {
      "B": "The centre"
    }
  },
  {
    "id": "A-007-004-010",
    "language": "en",
    "question": "In a half-wave dipole, where does the minimum current occur?",
    "options": {
      "A": "At both ends",
      "B": "At the right end",
      "C": "At the centre",
      "D": "It is equal at all points"
    },
    "answer": {
      "A": "At both ends"
    }
  },
  {
    "id": "A-007-004-011",
    "language": "en",
    "question": "In a half-wave dipole, where does the minimum impedance occur?",
    "options": {
      "A": "At the right end",
      "B": "At the centre",
      "C": "At both ends",
      "D": "It is the same at all points"
    },
    "answer": {
      "B": "At the centre"
    }
  }
]