[
  {
    "id": "A-004-002-001",
    "language": "en",
    "question": "Filter chokes are rated according to:",
    "options": {
      "A": "power loss",
      "B": "reactance at 1000 Hz",
      "C": "breakdown voltage",
      "D": "inductance and current-handling capacity"
    },
    "answer": {
      "D": "inductance and current-handling capacity"
    }
  },
  {
    "id": "A-004-002-002",
    "language": "en",
    "question": "Which of the following circuits gives the best regulation, under similar load conditions?",
    "options": {
      "A": "A half-wave rectifier with a choke input filter",
      "B": "A full-wave rectifier with a choke input filter",
      "C": "A full-wave rectifier with a capacitor input filter",
      "D": "A half-wave bridge rectifier with a capacitor input filter"
    },
    "answer": {
      "B": "A full-wave rectifier with a choke input filter"
    }
  },
  {
    "id": "A-004-002-003",
    "language": "en",
    "question": "The advantage of the capacitor input filter over the choke input filter is:",
    "options": {
      "A": "lower peak rectifier currents",
      "B": "better filtering action or smaller ripple voltage",
      "C": "improved voltage regulation",
      "D": "a higher terminal voltage output"
    },
    "answer": {
      "D": "a higher terminal voltage output"
    }
  },
  {
    "id": "A-004-002-004",
    "language": "en",
    "question": "With a normal load, the choke input filter will give the:",
    "options": {
      "A": "greatest percentage of ripple",
      "B": "greatest ripple frequency",
      "C": "best regulated output",
      "D": "highest output voltage"
    },
    "answer": {
      "C": "best regulated output"
    }
  },
  {
    "id": "A-004-002-005",
    "language": "en",
    "question": "There are two types of filters in general use in a power supply. They are called:",
    "options": {
      "A": "choke input and capacitor output",
      "B": "choke output and capacitor input",
      "C": "choke input and capacitor input",
      "D": "choke output and capacitor output"
    },
    "answer": {
      "C": "choke input and capacitor input"
    }
  },
  {
    "id": "A-004-002-006",
    "language": "en",
    "question": "The main function of the bleeder resistor in a power supply is to provide a discharge path for the capacitor in the power supply. But it may also be used for a secondary function, which is to:",
    "options": {
      "A": "act as a secondary smoothing device in conjunction with the filter",
      "B": "provide a ground return for the transformer",
      "C": "inhibit the flow of current through the supply",
      "D": "improve voltage regulation"
    },
    "answer": {
      "D": "improve voltage regulation"
    }
  },
  {
    "id": "A-004-002-007",
    "language": "en",
    "question": "In a power supply, series chokes will:",
    "options": {
      "A": "impede the passage of DC but will pass the AC component",
      "B": "readily pass the DC but will impede the flow of the AC component",
      "C": "readily pass the DC and the AC component",
      "D": "impede both DC and AC"
    },
    "answer": {
      "B": "readily pass the DC but will impede the flow of the AC component"
    }
  },
  {
    "id": "A-004-002-008",
    "language": "en",
    "question": "When using a choke input filter, a minimum current should be drawn all the time when the device is switched on. This can be accomplished by:",
    "options": {
      "A": "placing an ammeter in the output circuit",
      "B": "including a suitable bleeder resistance",
      "C": "utilizing a full-wave bridge rectifier circuit",
      "D": "increasing the value of the output capacitor"
    },
    "answer": {
      "B": "including a suitable bleeder resistance"
    }
  },
  {
    "id": "A-004-002-009",
    "language": "en",
    "question": "In the design of a power supply, the designer must be careful of resonance effects because the ripple voltage could build up to a high value. The components that must be carefully selected are:",
    "options": {
      "A": "first choke and second capacitor",
      "B": "the bleeder resistor and the first choke",
      "C": "first choke and first capacitor",
      "D": "first capacitor and second capacitor"
    },
    "answer": {
      "C": "first choke and first capacitor"
    }
  },
  {
    "id": "A-004-002-010",
    "language": "en",
    "question": "Excessive rectifier peak current and abnormally high peak inverse voltages can be caused in a power supply by the filter forming a:",
    "options": {
      "A": "series resonant circuit with the first choke and first capacitor",
      "B": "short circuit across the bleeder",
      "C": "tuned inductance in the filter choke",
      "D": "parallel resonant circuit with the first choke and second capacitor"
    },
    "answer": {
      "A": "series resonant circuit with the first choke and first capacitor"
    }
  },
  {
    "id": "A-004-002-011",
    "language": "en",
    "question": "In a properly designed choke input filter power supply, the no-load voltage across the filter capacitor will be about nine-tenths of the AC RMS voltage  yet it is advisable to use capacitors rated at the peak transformer voltage. Why is this large safety margin suggested?",
    "options": {
      "A": "Under no-load conditions, the current could reach a high level",
      "B": "Under heavy load, high currents and voltages are produced",
      "C": "Resonance can be set up in the filter producing high voltages",
      "D": "Under no-load conditions and a burned-out bleeder, voltages could reach the peak transformer voltage"
    },
    "answer": {
      "D": "Under no-load conditions and a burned-out bleeder, voltages could reach the peak transformer voltage"
    }
  }
]