[
  {
    "id": "A-007-001-001",
    "language": "en",
    "question": "For an antenna tuner of the \"Transformer\" type, which of the following statements is FALSE?",
    "options": {
      "A": "The input is suitable for 50 ohm impedance",
      "B": "The output is suitable for impedances from low to high",
      "C": "The circuit is known as a transformer-type antenna tuner",
      "D": "The circuit is known as a Pi-type antenna tuner"
    },
    "answer": {
      "D": "The circuit is known as a Pi-type antenna tuner"
    }
  },
  {
    "id": "A-007-001-002",
    "language": "en",
    "question": "For an antenna tuner of the \"Series\" type, which of the following statements is false?",
    "options": {
      "A": "The circuit is known as a Series-type antenna tuner",
      "B": "The circuit is known as a Pi-type antenna tuner",
      "C": "The output is suitable for impedances from low to high",
      "D": "The input is suitable for impedance of 50 ohms"
    },
    "answer": {
      "B": "The circuit is known as a Pi-type antenna tuner"
    }
  },
  {
    "id": "A-007-001-003",
    "language": "en",
    "question": "For an antenna tuner of the \"L\" type, which of the following statements is false?",
    "options": {
      "A": "The circuit is known as an L-type antenna tuner",
      "B": "The transmitter input is suitable for 50 ohms impedance",
      "C": "The circuit is suitable for matching to a vertical ground plane antenna",
      "D": "The antenna output is high impedance"
    },
    "answer": {
      "C": "The circuit is suitable for matching to a vertical ground plane antenna"
    }
  },
  {
    "id": "A-007-001-004",
    "language": "en",
    "question": "For an antenna tuner of the \"Pi\" type, which of the following statements is false?",
    "options": {
      "A": "The circuit is a Pi-type antenna tuner",
      "B": "The transmitter input is suitable for impedance of 50 ohms",
      "C": "The circuit is a series-type antenna tuner",
      "D": "The antenna output is suitable for impedances from low to high"
    },
    "answer": {
      "C": "The circuit is a series-type antenna tuner"
    }
  },
  {
    "id": "A-007-001-005",
    "language": "en",
    "question": "What is a pi-network?",
    "options": {
      "A": "An antenna matching network that is isolated from ground",
      "B": "A network consisting of one inductor and two capacitors or two inductors and one capacitor",
      "C": "A power incidence network",
      "D": "A network consisting of four inductors or four capacitors"
    },
    "answer": {
      "B": "A network consisting of one inductor and two capacitors or two inductors and one capacitor"
    }
  },
  {
    "id": "A-007-001-006",
    "language": "en",
    "question": "Which type of network offers the greatest transformation ratio?",
    "options": {
      "A": "Chebyshev",
      "B": "Pi-network",
      "C": "L-network",
      "D": "Butterworth"
    },
    "answer": {
      "B": "Pi-network"
    }
  },
  {
    "id": "A-007-001-007",
    "language": "en",
    "question": "Why is an L-network of limited utility in impedance matching?",
    "options": {
      "A": "It has limited power handling capability",
      "B": "It matches only a small impedance range",
      "C": "It is thermally unstable",
      "D": "It is prone to self-resonance"
    },
    "answer": {
      "B": "It matches only a small impedance range"
    }
  },
  {
    "id": "A-007-001-008",
    "language": "en",
    "question": "How does a network transform one impedance to another?",
    "options": {
      "A": "It produces transconductance to cancel the reactive part of an impedance",
      "B": "It cancels the reactive part of an impedance and changes the resistive part",
      "C": "Network resistances substitute for load resistances",
      "D": "It introduces negative resistance to cancel the resistive part of an impedance"
    },
    "answer": {
      "B": "It cancels the reactive part of an impedance and changes the resistive part"
    }
  },
  {
    "id": "A-007-001-009",
    "language": "en",
    "question": "What advantage does a pi-L network have over a pi-network for impedance matching between a vacuum tube linear amplifier and a multiband antenna?",
    "options": {
      "A": "Higher efficiency",
      "B": "Lower losses",
      "C": "Greater transformation range",
      "D": "Greater harmonic suppression"
    },
    "answer": {
      "D": "Greater harmonic suppression"
    }
  },
  {
    "id": "A-007-001-010",
    "language": "en",
    "question": "Which type of network provides the greatest harmonic suppression?",
    "options": {
      "A": "L-network",
      "B": "Pi-network",
      "C": "Inverse pi-network",
      "D": "Pi-L network"
    },
    "answer": {
      "D": "Pi-L network"
    }
  },
  {
    "id": "A-007-001-011",
    "language": "en",
    "question": "A Smith Chart is useful:",
    "options": {
      "A": "only to solve matching and transmission line problems",
      "B": "because it simplifies mathematical operations",
      "C": "to solve problems in direct current circuits",
      "D": "because it only works with complex numbers"
    },
    "answer": {
      "B": "because it simplifies mathematical operations"
    }
  }
]