[
  {
    "id": "A-002-011-001",
    "language": "en",
    "question": "What is a crystal lattice filter?",
    "options": {
      "A": "An audio filter made with four quartz crystals that resonate at 1 kHz intervals",
      "B": "A filter with narrow bandwidth and steep skirts made using quartz crystals",
      "C": "A power supply filter made with interlaced quartz crystals",
      "D": "A filter with wide bandwidth and shallow skirts made using quartz crystals"
    },
    "answer": {
      "B": "A filter with narrow bandwidth and steep skirts made using quartz crystals"
    }
  },
  {
    "id": "A-002-011-002",
    "language": "en",
    "question": "What factor determines the bandwidth and response shape of a crystal lattice filter?",
    "options": {
      "A": "The centre frequency chosen for the filter",
      "B": "The amplitude of the signals passing through the filter",
      "C": "The relative frequencies of the individual crystals",
      "D": "The gain of the RF stage following the filter"
    },
    "answer": {
      "C": "The relative frequencies of the individual crystals"
    }
  },
  {
    "id": "A-002-011-003",
    "language": "en",
    "question": "For single-sideband phone emissions, what would be the bandwidth of a good crystal lattice filter?",
    "options": {
      "A": "15 kHz",
      "B": "6 kHz",
      "C": "2.4 kHz",
      "D": "500 Hz"
    },
    "answer": {
      "C": "2.4 kHz"
    }
  },
  {
    "id": "A-002-011-004",
    "language": "en",
    "question": "The main advantage of a crystal oscillator over a tuned LC oscillator is:",
    "options": {
      "A": "longer life under severe operating use",
      "B": "simplicity",
      "C": "much greater frequency stability",
      "D": "freedom from harmonic emissions"
    },
    "answer": {
      "C": "much greater frequency stability"
    }
  },
  {
    "id": "A-002-011-005",
    "language": "en",
    "question": "A quartz crystal filter is superior to an LC filter for narrow bandpass applications because of the:",
    "options": {
      "A": "crystal's simplicity",
      "B": "crystal's high Q",
      "C": "LC circuit's high Q",
      "D": "crystal's low Q"
    },
    "answer": {
      "B": "crystal's high Q"
    }
  },
  {
    "id": "A-002-011-006",
    "language": "en",
    "question": "Piezoelectricity is generated by:",
    "options": {
      "A": "moving a magnet near a crystal",
      "B": "touching crystals with magnets",
      "C": "deforming certain crystals",
      "D": "adding impurities to a crystal"
    },
    "answer": {
      "C": "deforming certain crystals"
    }
  },
  {
    "id": "A-002-011-007",
    "language": "en",
    "question": "Electrically, what does a crystal look like?",
    "options": {
      "A": "A very high Q tuned circuit",
      "B": "A variable tuned circuit",
      "C": "A variable capacitance",
      "D": "A very low Q tuned circuit"
    },
    "answer": {
      "A": "A very high Q tuned circuit"
    }
  },
  {
    "id": "A-002-011-008",
    "language": "en",
    "question": "Crystals are sometimes used in a circuit which has an output close to an integral multiple of the crystal frequency. This circuit is called:",
    "options": {
      "A": "a crystal multiplier",
      "B": "an overtone oscillator",
      "C": "a crystal ladder",
      "D": "a crystal lattice"
    },
    "answer": {
      "B": "an overtone oscillator"
    }
  },
  {
    "id": "A-002-011-009",
    "language": "en",
    "question": "Which of the following properties does not apply to a crystal when used in an oscillator circuit?",
    "options": {
      "A": "Very low noise because of high Q",
      "B": "High power output",
      "C": "Good frequency stability",
      "D": "Good frequency accuracy"
    },
    "answer": {
      "B": "High power output"
    }
  },
  {
    "id": "A-002-011-010",
    "language": "en",
    "question": "Crystal oscillators, filters and microphones depend upon which principle?",
    "options": {
      "A": "Piezoelectric effect",
      "B": "Ferro-resonance",
      "C": "Hertzberg effect",
      "D": "Overtone effect"
    },
    "answer": {
      "A": "Piezoelectric effect"
    }
  },
  {
    "id": "A-002-011-011",
    "language": "en",
    "question": "Crystals are not applicable to which of the following?",
    "options": {
      "A": "Microphones",
      "B": "Lattice filters",
      "C": "Active filters",
      "D": "Oscillators"
    },
    "answer": {
      "C": "Active filters"
    }
  }
]