[
  {
    "id": "B-007-004-001",
    "language": "en",
    "question": "What effect does the D region of the ionosphere have on lower frequency HF signals in the daytime?",
    "options": {
      "A": "It absorbs the signals",
      "B": "It bends the radio waves out into space",
      "C": "It has little or no effect on 80-metre radio waves",
      "D": "It refracts the radio waves back to Earth"
    },
    "answer": {
      "A": "It absorbs the signals"
    }
  },
  {
    "id": "B-007-004-002",
    "language": "en",
    "question": "What causes distant AM broadcast and 160 metre ham band stations not to be heard during daytime hours?",
    "options": {
      "A": "The weather below the ionosphere",
      "B": "The ionization of the D region",
      "C": "The presence of ionized clouds in the E region",
      "D": "The splitting of the F region"
    },
    "answer": {
      "B": "The ionization of the D region"
    }
  },
  {
    "id": "B-007-004-003",
    "language": "en",
    "question": "Two or more parts of the radio wave follow different paths during propagation and this may result in phase differences at the receiver. This \"change\" at the receiver is called:",
    "options": {
      "A": "fading",
      "B": "skip",
      "C": "absorption",
      "D": "baffling"
    },
    "answer": {
      "A": "fading"
    }
  },
  {
    "id": "B-007-004-004",
    "language": "en",
    "question": "A change or variation in signal strength at the antenna, caused by differences in path lengths, is called:",
    "options": {
      "A": "absorption",
      "B": "fading",
      "C": "fluctuation",
      "D": "path loss"
    },
    "answer": {
      "B": "fading"
    }
  },
  {
    "id": "B-007-004-005",
    "language": "en",
    "question": "When a transmitted radio signal reaches a station by a one-hop and two-hop skip path, small changes in the ionosphere can cause:",
    "options": {
      "A": "consistently stronger signals",
      "B": "a change in the ground-wave signal",
      "C": "consistent fading of received signal",
      "D": "variations in signal strength"
    },
    "answer": {
      "D": "variations in signal strength"
    }
  },
  {
    "id": "B-007-004-006",
    "language": "en",
    "question": "The usual effect of ionospheric storms is to:",
    "options": {
      "A": "produce extreme weather changes",
      "B": "cause a fade-out of sky-wave signals",
      "C": "prevent communications by ground wave",
      "D": "increase the maximum usable frequency"
    },
    "answer": {
      "B": "cause a fade-out of sky-wave signals"
    }
  },
  {
    "id": "B-007-004-007",
    "language": "en",
    "question": "On the VHF and UHF bands, polarization of the receiving antenna is very important in relation to the transmitting antenna, yet on HF bands it is relatively unimportant. Why is that so?",
    "options": {
      "A": "The ground wave and the sky wave continually shift the polarization",
      "B": "Greater selectivity is possible with HF receivers making changes in polarization redundant",
      "C": "Anomalies in the Earth's magnetic field produce a profound effect on HF polarization but not on VHF & UHF frequencies",
      "D": "The ionosphere can change the polarization of the signal from moment to moment"
    },
    "answer": {
      "D": "The ionosphere can change the polarization of the signal from moment to moment"
    }
  },
  {
    "id": "B-007-004-008",
    "language": "en",
    "question": "What causes selective fading?",
    "options": {
      "A": "Phase differences between radio wave components of the same transmission, as experienced at the receiving station",
      "B": "Time differences between the receiving and transmitting stations",
      "C": "Large changes in the height of the ionosphere at the receiving station ordinarily occurring shortly before sunrise and sunset",
      "D": "Small changes in beam heading at the receiving station"
    },
    "answer": {
      "A": "Phase differences between radio wave components of the same transmission, as experienced at the receiving station"
    }
  },
  {
    "id": "B-007-004-009",
    "language": "en",
    "question": "How does the bandwidth of a transmitted signal affect selective fading?",
    "options": {
      "A": "It is the same for both wide and narrow bandwidths",
      "B": "It is more pronounced at narrow bandwidths",
      "C": "It is more pronounced at wide bandwidths",
      "D": "Only the receiver bandwidth determines the selective fading effect"
    },
    "answer": {
      "C": "It is more pronounced at wide bandwidths"
    }
  },
  {
    "id": "B-007-004-010",
    "language": "en",
    "question": "Polarization change often takes place on radio waves that are propagated over long distances. Which of these does not cause polarization change?",
    "options": {
      "A": "Parabolic interaction",
      "B": "Refractions",
      "C": "Passage through magnetic fields (Faraday rotation)",
      "D": "Reflections"
    },
    "answer": {
      "A": "Parabolic interaction"
    }
  },
  {
    "id": "B-007-004-011",
    "language": "en",
    "question": "Reflection of a SSB transmission from the ionosphere causes:",
    "options": {
      "A": "phase-shift distortion",
      "B": "a high-pitch squeal at the receiver",
      "C": "signal cancellation at the receiver",
      "D": "little or no phase-shift distortion"
    },
    "answer": {
      "D": "little or no phase-shift distortion"
    }
  }
]