[
  {
    "id": "B-001-008-001",
    "language": "en",
    "question": "Where may the holder of an Amateur Radio Operator Certificate operate an amateur radio station in Canada?",
    "options": {
      "A": "Only at the address shown on Innovation, Science and Economic Development Canada records",
      "B": "Anywhere in Canada",
      "C": "Anywhere in your call sign prefix area",
      "D": "Anywhere in Canada during times of emergency"
    },
    "answer": {
      "B": "Anywhere in Canada"
    }
  },
  {
    "id": "B-001-008-002",
    "language": "en",
    "question": "Which type of station may transmit one-way communications?",
    "options": {
      "A": "VHF station",
      "B": "HF station",
      "C": "Repeater station",
      "D": "Beacon station"
    },
    "answer": {
      "D": "Beacon station"
    }
  },
  {
    "id": "B-001-008-003",
    "language": "en",
    "question": "Amateur radio operators may install or operate radio apparatus:",
    "options": {
      "A": "only at the address which is on record at Innovation, Science and Economic Development Canada",
      "B": "at the address which is on record at Innovation, Science and Economic Development Canada and in two mobiles",
      "C": "at any location in Canada",
      "D": "at the address which is on record at Innovation, Science and Economic Development Canada and at one other location"
    },
    "answer": {
      "C": "at any location in Canada"
    }
  },
  {
    "id": "B-001-008-004",
    "language": "en",
    "question": "In order to install any radio apparatus, to be used specifically for receiving and automatically retransmitting radiotelephone communications within the same frequency band, a radio amateur must hold an Amateur Radio Operator Certificate, with a minimum of:",
    "options": {
      "A": "Basic with Honours qualification",
      "B": "Basic qualification",
      "C": "Basic and Advanced qualifications",
      "D": "Basic and Morse code qualifications"
    },
    "answer": {
      "C": "Basic and Advanced qualifications"
    }
  },
  {
    "id": "B-001-008-005",
    "language": "en",
    "question": "In order to install any radio apparatus, to be used specifically for an amateur radio club station, the radio amateur must hold an Amateur Radio Operator Certificate, with a minimum of the following qualifications:",
    "options": {
      "A": "Basic",
      "B": "Basic, Advanced and Morse code",
      "C": "Basic with Honours",
      "D": "Basic and Advanced"
    },
    "answer": {
      "D": "Basic and Advanced"
    }
  },
  {
    "id": "B-001-008-006",
    "language": "en",
    "question": "In order to install or operate a transmitter or RF amplifier that is neither professionally designed nor commercially manufactured for use in the amateur service, a radio amateur must hold an Amateur Operator's Certificate, with a minimum of which qualifications?",
    "options": {
      "A": "Basic and Morse code",
      "B": "Basic with Honours",
      "C": "Basic and Advanced",
      "D": "Basic, Advanced and Morse code"
    },
    "answer": {
      "C": "Basic and Advanced"
    }
  }
]