[
  {
    "id": "B-007-008-001",
    "language": "en",
    "question": "What kind of unusual HF propagation allows weak signals from the skip zone to be heard occasionally?",
    "options": {
      "A": "Ducting",
      "B": "Ground-wave",
      "C": "Scatter-mode",
      "D": "Sky-wave with low radiation angle"
    },
    "answer": {
      "C": "Scatter-mode"
    }
  },
  {
    "id": "B-007-008-002",
    "language": "en",
    "question": "If you receive a weak, distorted signal from a distance, and close to the maximum usable frequency, what type of propagation is probably occurring?",
    "options": {
      "A": "Ducting",
      "B": "Scatter",
      "C": "Line-of-sight",
      "D": "Ground-wave"
    },
    "answer": {
      "B": "Scatter"
    }
  },
  {
    "id": "B-007-008-003",
    "language": "en",
    "question": "What is a characteristic of HF scatter signals?",
    "options": {
      "A": "High intelligibility",
      "B": "Rapid flutter or hollow sounding distortion",
      "C": "Reversed sidebands",
      "D": "Reversed modulation"
    },
    "answer": {
      "B": "Rapid flutter or hollow sounding distortion"
    }
  },
  {
    "id": "B-007-008-004",
    "language": "en",
    "question": "What makes HF scatter signals often sound distorted?",
    "options": {
      "A": "Auroral activity and changes in the Earth's magnetic field",
      "B": "Propagation through ground waves that absorb much of the signal",
      "C": "Energy scattered into the skip zone through several radio-wave paths",
      "D": "The state of the E-region at the point of refraction"
    },
    "answer": {
      "C": "Energy scattered into the skip zone through several radio-wave paths"
    }
  },
  {
    "id": "B-007-008-005",
    "language": "en",
    "question": "Why are HF scatter signals usually weak?",
    "options": {
      "A": "The F region of the ionosphere absorbs most of the signal energy",
      "B": "Auroral activity absorbs most of the signal energy",
      "C": "Only a small part of the signal energy is scattered into the skip zone",
      "D": "Propagation through ground waves absorbs most of the signal energy"
    },
    "answer": {
      "C": "Only a small part of the signal energy is scattered into the skip zone"
    }
  },
  {
    "id": "B-007-008-006",
    "language": "en",
    "question": "What type of propagation may allow a weak signal to be heard at a distance too far for ground-wave propagation but too near for normal sky-wave propagation?",
    "options": {
      "A": "Sporadic-E skip",
      "B": "Ground wave",
      "C": "Scatter",
      "D": "Short-path skip"
    },
    "answer": {
      "C": "Scatter"
    }
  },
  {
    "id": "B-007-008-007",
    "language": "en",
    "question": "On the HF bands, when is scatter propagation most likely involved?",
    "options": {
      "A": "At night",
      "B": "When the F1 and F2 regions are combined",
      "C": "When weak and distorted signals near or above the maximum usable frequency for normal propagation can be heard over unusual paths",
      "D": "When the sunspot cycle is at a minimum and D-region absorption is high"
    },
    "answer": {
      "C": "When weak and distorted signals near or above the maximum usable frequency for normal propagation can be heard over unusual paths"
    }
  },
  {
    "id": "B-007-008-008",
    "language": "en",
    "question": "Which of the following is not a scatter mode?",
    "options": {
      "A": "Meteor scatter",
      "B": "Ionospheric scatter",
      "C": "Absorption scatter",
      "D": "Tropospheric scatter"
    },
    "answer": {
      "C": "Absorption scatter"
    }
  },
  {
    "id": "B-007-008-009",
    "language": "en",
    "question": "Meteor scatter is most effective on what band?",
    "options": {
      "A": "40 metres",
      "B": "160 metres",
      "C": "15 metres",
      "D": "6 metres"
    },
    "answer": {
      "D": "6 metres"
    }
  },
  {
    "id": "B-007-008-010",
    "language": "en",
    "question": "Which of the following is not a scatter mode?",
    "options": {
      "A": "Back scatter",
      "B": "Forward scatter",
      "C": "Inverted scatter",
      "D": "Side scatter"
    },
    "answer": {
      "C": "Inverted scatter"
    }
  },
  {
    "id": "B-007-008-011",
    "language": "en",
    "question": "In which frequency range is meteor scatter most effective for extended-range communication?",
    "options": {
      "A": "30 - 100 MHz",
      "B": "100 - 300 MHz",
      "C": "10 - 30 MHz",
      "D": "3 - 10 MHz"
    },
    "answer": {
      "A": "30 - 100 MHz"
    }
  }
]