[
  {
    "id": "B-003-002-001",
    "language": "en",
    "question": "In a frequency modulation transmitter, the input to the speech amplifier is connected to the:",
    "options": {
      "A": "frequency multiplier",
      "B": "power amplifier",
      "C": "modulator",
      "D": "microphone"
    },
    "answer": {
      "D": "microphone"
    }
  },
  {
    "id": "B-003-002-002",
    "language": "en",
    "question": "In a frequency modulation transmitter, the microphone is connected to the:",
    "options": {
      "A": "speech amplifier",
      "B": "power amplifier",
      "C": "modulator",
      "D": "oscillator"
    },
    "answer": {
      "A": "speech amplifier"
    }
  },
  {
    "id": "B-003-002-003",
    "language": "en",
    "question": "In a frequency modulation transmitter, the ____________is in between the speech amplifier and the oscillator.",
    "options": {
      "A": "power amplifier",
      "B": "frequency multiplier",
      "C": "microphone",
      "D": "modulator"
    },
    "answer": {
      "D": "modulator"
    }
  },
  {
    "id": "B-003-002-004",
    "language": "en",
    "question": "In a frequency modulation transmitter, the __________is located between the modulator and the frequency multiplier.",
    "options": {
      "A": "microphone",
      "B": "speech amplifier",
      "C": "power amplifier",
      "D": "oscillator"
    },
    "answer": {
      "D": "oscillator"
    }
  },
  {
    "id": "B-003-002-005",
    "language": "en",
    "question": "In a frequency modulation transmitter, the ___________is located between the oscillator and the power amplifier.",
    "options": {
      "A": "frequency multiplier",
      "B": "modulator",
      "C": "speech amplifier",
      "D": "microphone"
    },
    "answer": {
      "A": "frequency multiplier"
    }
  },
  {
    "id": "B-003-002-006",
    "language": "en",
    "question": "In a frequency modulation transmitter, the _________ is located between the frequency multiplier and the antenna.",
    "options": {
      "A": "modulator",
      "B": "speech amplifier",
      "C": "power amplifier",
      "D": "oscillator"
    },
    "answer": {
      "C": "power amplifier"
    }
  },
  {
    "id": "B-003-002-007",
    "language": "en",
    "question": "In a frequency modulation transmitter, the power amplifier output is connected to the:",
    "options": {
      "A": "antenna",
      "B": "frequency multiplier",
      "C": "modulator",
      "D": "microphone"
    },
    "answer": {
      "A": "antenna"
    }
  }
]