[
  {
    "id": "B-003-020-001",
    "language": "en",
    "question": "Why should you ground all antenna and rotator cables when your amateur station is not in use?",
    "options": {
      "A": "To make sure everything will stay in place",
      "B": "To help protect the station equipment and building from lightning damage",
      "C": "To avoid radio frequency interference",
      "D": "To lock the antenna system in one position"
    },
    "answer": {
      "B": "To help protect the station equipment and building from lightning damage"
    }
  },
  {
    "id": "B-003-020-002",
    "language": "en",
    "question": "You want to install a lightning arrestor on your antenna transmission line, where should it be inserted?",
    "options": {
      "A": "Close to the antenna",
      "B": "Anywhere on the line",
      "C": "Outside, as close to earth grounding as possible",
      "D": "Behind the transceiver"
    },
    "answer": {
      "C": "Outside, as close to earth grounding as possible"
    }
  },
  {
    "id": "B-003-020-003",
    "language": "en",
    "question": "How can amateur station equipment best be protected from lightning damage?",
    "options": {
      "A": "Use heavy insulation on the wiring",
      "B": "Disconnect all equipment from the power lines and antenna cables",
      "C": "Disconnect the ground system from all radios",
      "D": "Never turn off the equipment"
    },
    "answer": {
      "B": "Disconnect all equipment from the power lines and antenna cables"
    }
  },
  {
    "id": "B-003-020-004",
    "language": "en",
    "question": "What equipment should be worn for working on an antenna tower?",
    "options": {
      "A": "A reflective vest of approved colour",
      "B": "Approved equipment in accordance with applicable standards concerning fall protection",
      "C": "A flashing red, yellow or white light",
      "D": "A grounding chain"
    },
    "answer": {
      "B": "Approved equipment in accordance with applicable standards concerning fall protection"
    }
  },
  {
    "id": "B-003-020-005",
    "language": "en",
    "question": "Why should you wear approved fall arrest equipment if you are working on an antenna tower?",
    "options": {
      "A": "To keep the tower from becoming unbalanced while you are working",
      "B": "To prevent you from accidentally falling",
      "C": "To safely hold your tools so they don't fall and injure someone on the ground",
      "D": "To safely bring any tools you might use up and down the tower"
    },
    "answer": {
      "B": "To prevent you from accidentally falling"
    }
  },
  {
    "id": "B-003-020-006",
    "language": "en",
    "question": "For safety, how high should you place a horizontal wire antenna?",
    "options": {
      "A": "Above high-voltage electrical lines",
      "B": "Just high enough so you can easily reach it for adjustments or repairs",
      "C": "As close to the ground as possible",
      "D": "High enough so that no one can touch any part of it from the ground"
    },
    "answer": {
      "D": "High enough so that no one can touch any part of it from the ground"
    }
  },
  {
    "id": "B-003-020-007",
    "language": "en",
    "question": "Why should you wear a hard hat if you are on the ground helping someone work on an antenna tower?",
    "options": {
      "A": "To keep RF energy away from your head during antenna testing",
      "B": "So you won't be hurt if the tower should accidentally fall",
      "C": "So someone passing by will know that work is being done on the tower and will stay away",
      "D": "To protect your head from something dropped from the tower"
    },
    "answer": {
      "D": "To protect your head from something dropped from the tower"
    }
  },
  {
    "id": "B-003-020-008",
    "language": "en",
    "question": "Why should your outside antennas be high enough so that no one can touch them while you are transmitting?",
    "options": {
      "A": "Touching the antenna might radiate harmonics",
      "B": "Touching the antenna might reflect the signal back to the transmitter and cause damage",
      "C": "Touching the antenna might cause television interference",
      "D": "Touching the antenna might cause RF burns"
    },
    "answer": {
      "D": "Touching the antenna might cause RF burns"
    }
  },
  {
    "id": "B-003-020-009",
    "language": "en",
    "question": "Why should you make sure that no one can touch an open wire transmission line while you are transmitting with it?",
    "options": {
      "A": "Because high-voltage radio energy might burn the person",
      "B": "Because contact might break the transmission line",
      "C": "Because contact might cause spurious emissions",
      "D": "Because contact might cause a short circuit and damage the transmitter"
    },
    "answer": {
      "A": "Because high-voltage radio energy might burn the person"
    }
  },
  {
    "id": "B-003-020-010",
    "language": "en",
    "question": "What safety precautions should you take before beginning repairs on an antenna?",
    "options": {
      "A": "Inform your neighbours so they are aware of your intentions",
      "B": "Be sure to turn off the transmitter and disconnect the transmission line",
      "C": "Be sure you and the antenna structure are grounded",
      "D": "Turn off the main power switch in your house"
    },
    "answer": {
      "B": "Be sure to turn off the transmitter and disconnect the transmission line"
    }
  },
  {
    "id": "B-003-020-011",
    "language": "en",
    "question": "What precaution should you take when installing a ground-mounted antenna?",
    "options": {
      "A": "It should not be installed higher than you can reach",
      "B": "It should be installed so no one can come in contact with it",
      "C": "It should be painted so people or animals do not accidentally run into it",
      "D": "It should not be installed in a wet area"
    },
    "answer": {
      "B": "It should be installed so no one can come in contact with it"
    }
  }
]